<?xml version="1.0" encoding="iso-8859-1"  standalone="no"?>
<!DOCTYPE svg PUBLIC "-//W3C//DTD SVG 1.1//EN" 
 "http://www.w3.org/Graphics/SVG/1.1/DTD/svg11.dtd">
<svg 
 width="800" height="600" 
 viewBox="0 0 800 600"
 xmlns="http://www.w3.org/2000/svg"
 xmlns:xlink="http://www.w3.org/1999/xlink"
>

<title>Gnuplot</title>
<desc>Produced by GNUPLOT 4.6 patchlevel 4 </desc>

<g id="gnuplot_canvas">

<rect x="0" y="0" width="800" height="600" fill="none"/>
<defs>

	<circle id='gpDot' r='0.5' stroke-width='0.5'/>
	<path id='gpPt0' stroke-width='0.121' stroke='currentColor' d='M-1,0 h2 M0,-1 v2'/>
	<path id='gpPt1' stroke-width='0.121' stroke='currentColor' d='M-1,-1 L1,1 M1,-1 L-1,1'/>
	<path id='gpPt2' stroke-width='0.121' stroke='currentColor' d='M-1,0 L1,0 M0,-1 L0,1 M-1,-1 L1,1 M-1,1 L1,-1'/>
	<rect id='gpPt3' stroke-width='0.121' stroke='currentColor' x='-1' y='-1' width='2' height='2'/>
	<rect id='gpPt4' stroke-width='0.121' stroke='currentColor' fill='currentColor' x='-1' y='-1' width='2' height='2'/>
	<circle id='gpPt5' stroke-width='0.121' stroke='currentColor' cx='0' cy='0' r='1'/>
	<use xlink:href='#gpPt5' id='gpPt6' fill='currentColor' stroke='none'/>
	<path id='gpPt7' stroke-width='0.121' stroke='currentColor' d='M0,-1.33 L-1.33,0.67 L1.33,0.67 z'/>
	<use xlink:href='#gpPt7' id='gpPt8' fill='currentColor' stroke='none'/>
	<use xlink:href='#gpPt7' id='gpPt9' stroke='currentColor' transform='rotate(180)'/>
	<use xlink:href='#gpPt9' id='gpPt10' fill='currentColor' stroke='none'/>
	<use xlink:href='#gpPt3' id='gpPt11' stroke='currentColor' transform='rotate(45)'/>
	<use xlink:href='#gpPt11' id='gpPt12' fill='currentColor' stroke='none'/>
</defs>
<g style="fill:none; color:white; stroke:currentColor; stroke-width:1.00; stroke-linecap:butt; stroke-linejoin:miter">
</g>
<g style="fill:none; color:black; stroke:currentColor; stroke-width:1.00; stroke-linecap:butt; stroke-linejoin:miter">
</g>
<g style="fill:none; color:gray; stroke:currentColor; stroke-width:1.00; stroke-linecap:butt; stroke-linejoin:miter">
	<path stroke='rgb(175, 175, 175)' stroke-dasharray=' 2,4' class="gridline"  d='M132.4,494.4 L754.0,494.4  h0.01'/></g>
<g style="fill:none; color:black; stroke:currentColor; stroke-width:1.00; stroke-linecap:butt; stroke-linejoin:miter">
	<path stroke='black'  d='M132.4,494.4 L148.9,494.4 M754.0,494.4 L737.5,494.4  h0.01'/>	<g transform="translate(117.1,502.6)" style="stroke:none; fill:black; font-family:Times New Roman; font-size:22.00pt; text-anchor:end">
		<text><tspan>0.00</tspan></text>
	</g>
</g>
<g style="fill:none; color:gray; stroke:currentColor; stroke-width:1.00; stroke-linecap:butt; stroke-linejoin:miter">
	<path stroke='rgb(175, 175, 175)' stroke-dasharray=' 2,4' class="gridline"  d='M132.4,436.4 L477.4,436.4 M738.7,436.4 L754.0,436.4  h0.01'/></g>
<g style="fill:none; color:black; stroke:currentColor; stroke-width:1.00; stroke-linecap:butt; stroke-linejoin:miter">
	<path stroke='black'  d='M132.4,436.4 L148.9,436.4 M754.0,436.4 L737.5,436.4  h0.01'/>	<g transform="translate(117.1,444.6)" style="stroke:none; fill:black; font-family:Times New Roman; font-size:22.00pt; text-anchor:end">
		<text><tspan>0.05</tspan></text>
	</g>
</g>
<g style="fill:none; color:gray; stroke:currentColor; stroke-width:1.00; stroke-linecap:butt; stroke-linejoin:miter">
	<path stroke='rgb(175, 175, 175)' stroke-dasharray=' 2,4' class="gridline"  d='M132.4,378.5 L754.0,378.5  h0.01'/></g>
<g style="fill:none; color:black; stroke:currentColor; stroke-width:1.00; stroke-linecap:butt; stroke-linejoin:miter">
	<path stroke='black'  d='M132.4,378.5 L148.9,378.5 M754.0,378.5 L737.5,378.5  h0.01'/>	<g transform="translate(117.1,386.7)" style="stroke:none; fill:black; font-family:Times New Roman; font-size:22.00pt; text-anchor:end">
		<text><tspan>0.10</tspan></text>
	</g>
</g>
<g style="fill:none; color:gray; stroke:currentColor; stroke-width:1.00; stroke-linecap:butt; stroke-linejoin:miter">
	<path stroke='rgb(175, 175, 175)' stroke-dasharray=' 2,4' class="gridline"  d='M132.4,320.5 L754.0,320.5  h0.01'/></g>
<g style="fill:none; color:black; stroke:currentColor; stroke-width:1.00; stroke-linecap:butt; stroke-linejoin:miter">
	<path stroke='black'  d='M132.4,320.5 L148.9,320.5 M754.0,320.5 L737.5,320.5  h0.01'/>	<g transform="translate(117.1,328.7)" style="stroke:none; fill:black; font-family:Times New Roman; font-size:22.00pt; text-anchor:end">
		<text><tspan>0.15</tspan></text>
	</g>
</g>
<g style="fill:none; color:gray; stroke:currentColor; stroke-width:1.00; stroke-linecap:butt; stroke-linejoin:miter">
	<path stroke='rgb(175, 175, 175)' stroke-dasharray=' 2,4' class="gridline"  d='M132.4,262.5 L754.0,262.5  h0.01'/></g>
<g style="fill:none; color:black; stroke:currentColor; stroke-width:1.00; stroke-linecap:butt; stroke-linejoin:miter">
	<path stroke='black'  d='M132.4,262.5 L148.9,262.5 M754.0,262.5 L737.5,262.5  h0.01'/>	<g transform="translate(117.1,270.7)" style="stroke:none; fill:black; font-family:Times New Roman; font-size:22.00pt; text-anchor:end">
		<text><tspan>0.20</tspan></text>
	</g>
</g>
<g style="fill:none; color:gray; stroke:currentColor; stroke-width:1.00; stroke-linecap:butt; stroke-linejoin:miter">
	<path stroke='rgb(175, 175, 175)' stroke-dasharray=' 2,4' class="gridline"  d='M132.4,204.6 L754.0,204.6  h0.01'/></g>
<g style="fill:none; color:black; stroke:currentColor; stroke-width:1.00; stroke-linecap:butt; stroke-linejoin:miter">
	<path stroke='black'  d='M132.4,204.6 L148.9,204.6 M754.0,204.6 L737.5,204.6  h0.01'/>	<g transform="translate(117.1,212.8)" style="stroke:none; fill:black; font-family:Times New Roman; font-size:22.00pt; text-anchor:end">
		<text><tspan>0.25</tspan></text>
	</g>
</g>
<g style="fill:none; color:gray; stroke:currentColor; stroke-width:1.00; stroke-linecap:butt; stroke-linejoin:miter">
	<path stroke='rgb(175, 175, 175)' stroke-dasharray=' 2,4' class="gridline"  d='M132.4,146.6 L754.0,146.6  h0.01'/></g>
<g style="fill:none; color:black; stroke:currentColor; stroke-width:1.00; stroke-linecap:butt; stroke-linejoin:miter">
	<path stroke='black'  d='M132.4,146.6 L148.9,146.6 M754.0,146.6 L737.5,146.6  h0.01'/>	<g transform="translate(117.1,154.8)" style="stroke:none; fill:black; font-family:Times New Roman; font-size:22.00pt; text-anchor:end">
		<text><tspan>0.30</tspan></text>
	</g>
</g>
<g style="fill:none; color:gray; stroke:currentColor; stroke-width:1.00; stroke-linecap:butt; stroke-linejoin:miter">
	<path stroke='rgb(175, 175, 175)' stroke-dasharray=' 2,4' class="gridline"  d='M132.4,88.7 L754.0,88.7  h0.01'/></g>
<g style="fill:none; color:black; stroke:currentColor; stroke-width:1.00; stroke-linecap:butt; stroke-linejoin:miter">
	<path stroke='black'  d='M132.4,88.7 L148.9,88.7 M754.0,88.7 L737.5,88.7  h0.01'/>	<g transform="translate(117.1,96.9)" style="stroke:none; fill:black; font-family:Times New Roman; font-size:22.00pt; text-anchor:end">
		<text><tspan>0.35</tspan></text>
	</g>
</g>
<g style="fill:none; color:gray; stroke:currentColor; stroke-width:1.00; stroke-linecap:butt; stroke-linejoin:miter">
	<path stroke='rgb(175, 175, 175)' stroke-dasharray=' 2,4' class="gridline"  d='M132.4,30.7 L754.0,30.7  h0.01'/></g>
<g style="fill:none; color:black; stroke:currentColor; stroke-width:1.00; stroke-linecap:butt; stroke-linejoin:miter">
	<path stroke='black'  d='M132.4,30.7 L148.9,30.7 M754.0,30.7 L737.5,30.7  h0.01'/>	<g transform="translate(117.1,38.9)" style="stroke:none; fill:black; font-family:Times New Roman; font-size:22.00pt; text-anchor:end">
		<text><tspan>0.40</tspan></text>
	</g>
</g>
<g style="fill:none; color:gray; stroke:currentColor; stroke-width:1.00; stroke-linecap:butt; stroke-linejoin:miter">
	<path stroke='rgb(175, 175, 175)' stroke-dasharray=' 2,4' class="gridline"  d='M132.4,494.4 L132.4,30.7  h0.01'/></g>
<g style="fill:none; color:black; stroke:currentColor; stroke-width:1.00; stroke-linecap:butt; stroke-linejoin:miter">
	<path stroke='black'  d='M132.4,494.4 L132.4,477.9 M132.4,30.7 L132.4,47.2  h0.01'/>	<g transform="translate(132.4,535.6)" style="stroke:none; fill:black; font-family:Times New Roman; font-size:22.00pt; text-anchor:middle">
		<text><tspan> 0</tspan></text>
	</g>
</g>
<g style="fill:none; color:gray; stroke:currentColor; stroke-width:1.00; stroke-linecap:butt; stroke-linejoin:miter">
	<path stroke='rgb(175, 175, 175)' stroke-dasharray=' 2,4' class="gridline"  d='M256.7,494.4 L256.7,30.7  h0.01'/></g>
<g style="fill:none; color:black; stroke:currentColor; stroke-width:1.00; stroke-linecap:butt; stroke-linejoin:miter">
	<path stroke='black'  d='M256.7,494.4 L256.7,477.9 M256.7,30.7 L256.7,47.2  h0.01'/>	<g transform="translate(256.7,535.6)" style="stroke:none; fill:black; font-family:Times New Roman; font-size:22.00pt; text-anchor:middle">
		<text><tspan> 5000</tspan></text>
	</g>
</g>
<g style="fill:none; color:gray; stroke:currentColor; stroke-width:1.00; stroke-linecap:butt; stroke-linejoin:miter">
	<path stroke='rgb(175, 175, 175)' stroke-dasharray=' 2,4' class="gridline"  d='M381.0,494.4 L381.0,30.7  h0.01'/></g>
<g style="fill:none; color:black; stroke:currentColor; stroke-width:1.00; stroke-linecap:butt; stroke-linejoin:miter">
	<path stroke='black'  d='M381.0,494.4 L381.0,477.9 M381.0,30.7 L381.0,47.2  h0.01'/>	<g transform="translate(381.0,535.6)" style="stroke:none; fill:black; font-family:Times New Roman; font-size:22.00pt; text-anchor:middle">
		<text><tspan> 10000</tspan></text>
	</g>
</g>
<g style="fill:none; color:gray; stroke:currentColor; stroke-width:1.00; stroke-linecap:butt; stroke-linejoin:miter">
	<path stroke='rgb(175, 175, 175)' stroke-dasharray=' 2,4' class="gridline"  d='M505.4,494.4 L505.4,477.9 M505.4,411.9 L505.4,30.7  h0.01'/></g>
<g style="fill:none; color:black; stroke:currentColor; stroke-width:1.00; stroke-linecap:butt; stroke-linejoin:miter">
	<path stroke='black'  d='M505.4,494.4 L505.4,477.9 M505.4,30.7 L505.4,47.2  h0.01'/>	<g transform="translate(505.4,535.6)" style="stroke:none; fill:black; font-family:Times New Roman; font-size:22.00pt; text-anchor:middle">
		<text><tspan> 15000</tspan></text>
	</g>
</g>
<g style="fill:none; color:gray; stroke:currentColor; stroke-width:1.00; stroke-linecap:butt; stroke-linejoin:miter">
	<path stroke='rgb(175, 175, 175)' stroke-dasharray=' 2,4' class="gridline"  d='M629.7,494.4 L629.7,477.9 M629.7,411.9 L629.7,30.7  h0.01'/></g>
<g style="fill:none; color:black; stroke:currentColor; stroke-width:1.00; stroke-linecap:butt; stroke-linejoin:miter">
	<path stroke='black'  d='M629.7,494.4 L629.7,477.9 M629.7,30.7 L629.7,47.2  h0.01'/>	<g transform="translate(629.7,535.6)" style="stroke:none; fill:black; font-family:Times New Roman; font-size:22.00pt; text-anchor:middle">
		<text><tspan> 20000</tspan></text>
	</g>
</g>
<g style="fill:none; color:gray; stroke:currentColor; stroke-width:1.00; stroke-linecap:butt; stroke-linejoin:miter">
	<path stroke='rgb(175, 175, 175)' stroke-dasharray=' 2,4' class="gridline"  d='M754.0,494.4 L754.0,30.7  h0.01'/></g>
<g style="fill:none; color:black; stroke:currentColor; stroke-width:1.00; stroke-linecap:butt; stroke-linejoin:miter">
	<path stroke='black'  d='M754.0,494.4 L754.0,477.9 M754.0,30.7 L754.0,47.2  h0.01'/>	<g transform="translate(754.0,535.6)" style="stroke:none; fill:black; font-family:Times New Roman; font-size:22.00pt; text-anchor:middle">
		<text><tspan> 25000</tspan></text>
	</g>
	<path stroke='black'  d='M132.4,30.7 L132.4,494.4 L754.0,494.4 L754.0,30.7 L132.4,30.7 Z  h0.01'/>	<g transform="translate(32.3,262.6) rotate(270)" style="stroke:none; fill:black; font-family:Times New Roman; font-size:22.00pt; text-anchor:middle">
		<text><tspan>Loss ratio</tspan></text>
	</g>
	<g transform="translate(443.2,585.1)" style="stroke:none; fill:black; font-family:Times New Roman; font-size:22.00pt; text-anchor:middle">
		<text><tspan>Time</tspan></text>
	</g>
</g>
	<g id="gnuplot_plot_1" ><title>gnuplot_plot_1</title>
<g style="fill:none; color:red; stroke:currentColor; stroke-width:1.00; stroke-linecap:butt; stroke-linejoin:miter">
	<g transform="translate(630.4,436.6)" style="stroke:none; fill:black; font-family:Times New Roman; font-size:22.00pt; text-anchor:end">
		<text><tspan>edge=&lt;0,1></tspan></text>
	</g>
	<path stroke='green'  d='M645.7,428.4 L723.4,428.4 M158.2,154.3 L167.5,132.1 L167.5,134.0 M184.7,97.5 L191.0,84.3 M204.5,108.9 
		L209.9,104.6 M230.2,106.7 L237.7,101.3 M246.3,103.5 L269.7,115.4 L282.3,116.1 M294.2,119.4 L307.3,118.8 
		M351.8,132.7 M381.9,133.9 M415.1,145.5 M429.6,137.4 M483.7,132.7 L492.0,138.5 L494.3,139.7 M502.3,142.0 
		L529.3,145.5 M541.7,142.0 M651.1,174.4 M666.8,161.7  h0.01'/>	<use xlink:href='#gpPt6' transform='translate(158.2,154.3) scale(2.48)' color='green'/>
	<use xlink:href='#gpPt6' transform='translate(167.5,132.1) scale(2.48)' color='green'/>
	<use xlink:href='#gpPt6' transform='translate(167.5,134.0) scale(2.48)' color='green'/>
	<use xlink:href='#gpPt6' transform='translate(184.7,97.5) scale(2.48)' color='green'/>
	<use xlink:href='#gpPt6' transform='translate(191.0,84.3) scale(2.48)' color='green'/>
	<use xlink:href='#gpPt6' transform='translate(204.5,108.9) scale(2.48)' color='green'/>
	<use xlink:href='#gpPt6' transform='translate(209.9,104.6) scale(2.48)' color='green'/>
	<use xlink:href='#gpPt6' transform='translate(230.2,106.7) scale(2.48)' color='green'/>
	<use xlink:href='#gpPt6' transform='translate(237.7,101.3) scale(2.48)' color='green'/>
	<use xlink:href='#gpPt6' transform='translate(246.3,103.5) scale(2.48)' color='green'/>
	<use xlink:href='#gpPt6' transform='translate(269.7,115.4) scale(2.48)' color='green'/>
	<use xlink:href='#gpPt6' transform='translate(282.3,116.1) scale(2.48)' color='green'/>
	<use xlink:href='#gpPt6' transform='translate(294.2,119.4) scale(2.48)' color='green'/>
	<use xlink:href='#gpPt6' transform='translate(307.3,118.8) scale(2.48)' color='green'/>
	<use xlink:href='#gpPt6' transform='translate(351.8,132.7) scale(2.48)' color='green'/>
	<use xlink:href='#gpPt6' transform='translate(381.9,133.9) scale(2.48)' color='green'/>
	<use xlink:href='#gpPt6' transform='translate(415.1,145.5) scale(2.48)' color='green'/>
	<use xlink:href='#gpPt6' transform='translate(429.6,137.4) scale(2.48)' color='green'/>
	<use xlink:href='#gpPt6' transform='translate(483.7,132.7) scale(2.48)' color='green'/>
	<use xlink:href='#gpPt6' transform='translate(492.0,138.5) scale(2.48)' color='green'/>
	<use xlink:href='#gpPt6' transform='translate(494.3,139.7) scale(2.48)' color='green'/>
	<use xlink:href='#gpPt6' transform='translate(502.3,142.0) scale(2.48)' color='green'/>
	<use xlink:href='#gpPt6' transform='translate(529.3,145.5) scale(2.48)' color='green'/>
	<use xlink:href='#gpPt6' transform='translate(541.7,142.0) scale(2.48)' color='green'/>
	<use xlink:href='#gpPt6' transform='translate(651.1,174.4) scale(2.48)' color='green'/>
	<use xlink:href='#gpPt6' transform='translate(666.8,161.7) scale(2.48)' color='green'/>
	<use xlink:href='#gpPt6' transform='translate(684.5,428.4) scale(2.48)' color='green'/>
</g>
	</g>
	<g id="gnuplot_plot_2" ><title>gnuplot_plot_2</title>
<g style="fill:none; color:red; stroke:currentColor; stroke-width:1.00; stroke-linecap:butt; stroke-linejoin:miter">
	<g transform="translate(630.4,469.6)" style="stroke:none; fill:black; font-family:Times New Roman; font-size:22.00pt; text-anchor:end">
		<text><tspan>edge=&lt;0,2></tspan></text>
	</g>
	<path stroke='blue'  d='M645.7,461.4 L723.4,461.4 M143.4,149.1 L144.4,150.1 L146.8,163.2 L149.8,168.4 L155.4,169.5 M177.1,192.0 
		L179.2,198.0 M201.8,166.0 M228.0,159.7 L230.1,160.1 M239.0,154.5 L243.2,151.8 M292.3,142.3 M308.0,143.1 
		L314.6,142.0 L332.3,133.9 L341.8,139.7 L345.9,133.9 L348.9,132.7 M363.8,138.5 L365.1,137.4 M384.5,150.1 
		M427.4,165.2 M438.2,174.4 L439.0,173.3 L442.3,177.9 M495.1,184.9 M538.3,174.4 M579.6,181.4 L613.0,179.1 
		L633.4,165.2 L643.6,171.0 M653.6,176.8  h0.01'/>	<use xlink:href='#gpPt6' transform='translate(143.4,149.1) scale(2.48)' color='blue'/>
	<use xlink:href='#gpPt6' transform='translate(144.4,150.1) scale(2.48)' color='blue'/>
	<use xlink:href='#gpPt6' transform='translate(146.8,163.2) scale(2.48)' color='blue'/>
	<use xlink:href='#gpPt6' transform='translate(149.8,168.4) scale(2.48)' color='blue'/>
	<use xlink:href='#gpPt6' transform='translate(155.4,169.5) scale(2.48)' color='blue'/>
	<use xlink:href='#gpPt6' transform='translate(177.1,192.0) scale(2.48)' color='blue'/>
	<use xlink:href='#gpPt6' transform='translate(179.2,198.0) scale(2.48)' color='blue'/>
	<use xlink:href='#gpPt6' transform='translate(201.8,166.0) scale(2.48)' color='blue'/>
	<use xlink:href='#gpPt6' transform='translate(228.0,159.7) scale(2.48)' color='blue'/>
	<use xlink:href='#gpPt6' transform='translate(230.1,160.1) scale(2.48)' color='blue'/>
	<use xlink:href='#gpPt6' transform='translate(239.0,154.5) scale(2.48)' color='blue'/>
	<use xlink:href='#gpPt6' transform='translate(243.2,151.8) scale(2.48)' color='blue'/>
	<use xlink:href='#gpPt6' transform='translate(292.3,142.3) scale(2.48)' color='blue'/>
	<use xlink:href='#gpPt6' transform='translate(308.0,143.1) scale(2.48)' color='blue'/>
	<use xlink:href='#gpPt6' transform='translate(314.6,142.0) scale(2.48)' color='blue'/>
	<use xlink:href='#gpPt6' transform='translate(332.3,133.9) scale(2.48)' color='blue'/>
	<use xlink:href='#gpPt6' transform='translate(341.8,139.7) scale(2.48)' color='blue'/>
	<use xlink:href='#gpPt6' transform='translate(345.9,133.9) scale(2.48)' color='blue'/>
	<use xlink:href='#gpPt6' transform='translate(348.9,132.7) scale(2.48)' color='blue'/>
	<use xlink:href='#gpPt6' transform='translate(363.8,138.5) scale(2.48)' color='blue'/>
	<use xlink:href='#gpPt6' transform='translate(365.1,137.4) scale(2.48)' color='blue'/>
	<use xlink:href='#gpPt6' transform='translate(384.5,150.1) scale(2.48)' color='blue'/>
	<use xlink:href='#gpPt6' transform='translate(427.4,165.2) scale(2.48)' color='blue'/>
	<use xlink:href='#gpPt6' transform='translate(438.2,174.4) scale(2.48)' color='blue'/>
	<use xlink:href='#gpPt6' transform='translate(439.0,173.3) scale(2.48)' color='blue'/>
	<use xlink:href='#gpPt6' transform='translate(442.3,177.9) scale(2.48)' color='blue'/>
	<use xlink:href='#gpPt6' transform='translate(495.1,184.9) scale(2.48)' color='blue'/>
	<use xlink:href='#gpPt6' transform='translate(538.3,174.4) scale(2.48)' color='blue'/>
	<use xlink:href='#gpPt6' transform='translate(579.6,181.4) scale(2.48)' color='blue'/>
	<use xlink:href='#gpPt6' transform='translate(613.0,179.1) scale(2.48)' color='blue'/>
	<use xlink:href='#gpPt6' transform='translate(633.4,165.2) scale(2.48)' color='blue'/>
	<use xlink:href='#gpPt6' transform='translate(643.6,171.0) scale(2.48)' color='blue'/>
	<use xlink:href='#gpPt6' transform='translate(653.6,176.8) scale(2.48)' color='blue'/>
	<use xlink:href='#gpPt6' transform='translate(684.5,461.4) scale(2.48)' color='blue'/>
</g>
	</g>
<g style="fill:none; color:black; stroke:currentColor; stroke-width:1.00; stroke-linecap:butt; stroke-linejoin:miter">
	<path stroke='black'  d='M132.4,30.7 L132.4,494.4 L754.0,494.4 L754.0,30.7 L132.4,30.7 Z  h0.01'/></g>
</g>
</svg>

