<?xml version="1.0" encoding="iso-8859-1"  standalone="no"?>
<!DOCTYPE svg PUBLIC "-//W3C//DTD SVG 1.1//EN" 
 "http://www.w3.org/Graphics/SVG/1.1/DTD/svg11.dtd">
<svg 
 width="800" height="600" 
 viewBox="0 0 800 600"
 xmlns="http://www.w3.org/2000/svg"
 xmlns:xlink="http://www.w3.org/1999/xlink"
>

<title>Gnuplot</title>
<desc>Produced by GNUPLOT 4.6 patchlevel 4 </desc>

<g id="gnuplot_canvas">

<rect x="0" y="0" width="800" height="600" fill="none"/>
<defs>

	<circle id='gpDot' r='0.5' stroke-width='0.5'/>
	<path id='gpPt0' stroke-width='0.121' stroke='currentColor' d='M-1,0 h2 M0,-1 v2'/>
	<path id='gpPt1' stroke-width='0.121' stroke='currentColor' d='M-1,-1 L1,1 M1,-1 L-1,1'/>
	<path id='gpPt2' stroke-width='0.121' stroke='currentColor' d='M-1,0 L1,0 M0,-1 L0,1 M-1,-1 L1,1 M-1,1 L1,-1'/>
	<rect id='gpPt3' stroke-width='0.121' stroke='currentColor' x='-1' y='-1' width='2' height='2'/>
	<rect id='gpPt4' stroke-width='0.121' stroke='currentColor' fill='currentColor' x='-1' y='-1' width='2' height='2'/>
	<circle id='gpPt5' stroke-width='0.121' stroke='currentColor' cx='0' cy='0' r='1'/>
	<use xlink:href='#gpPt5' id='gpPt6' fill='currentColor' stroke='none'/>
	<path id='gpPt7' stroke-width='0.121' stroke='currentColor' d='M0,-1.33 L-1.33,0.67 L1.33,0.67 z'/>
	<use xlink:href='#gpPt7' id='gpPt8' fill='currentColor' stroke='none'/>
	<use xlink:href='#gpPt7' id='gpPt9' stroke='currentColor' transform='rotate(180)'/>
	<use xlink:href='#gpPt9' id='gpPt10' fill='currentColor' stroke='none'/>
	<use xlink:href='#gpPt3' id='gpPt11' stroke='currentColor' transform='rotate(45)'/>
	<use xlink:href='#gpPt11' id='gpPt12' fill='currentColor' stroke='none'/>
</defs>
<g style="fill:none; color:white; stroke:currentColor; stroke-width:1.00; stroke-linecap:butt; stroke-linejoin:miter">
</g>
<g style="fill:none; color:black; stroke:currentColor; stroke-width:1.00; stroke-linecap:butt; stroke-linejoin:miter">
</g>
<g style="fill:none; color:gray; stroke:currentColor; stroke-width:1.00; stroke-linecap:butt; stroke-linejoin:miter">
	<path stroke='rgb(175, 175, 175)' stroke-dasharray=' 2,4' class="gridline"  d='M147.7,468.0 L754.0,468.0  h0.01'/></g>
<g style="fill:none; color:black; stroke:currentColor; stroke-width:1.00; stroke-linecap:butt; stroke-linejoin:miter">
	<path stroke='black'  d='M147.7,468.0 L164.2,468.0 M754.0,468.0 L737.5,468.0  h0.01'/>	<g transform="translate(132.4,476.2)" style="stroke:none; fill:black; font-family:Times New Roman; font-size:22.00pt; text-anchor:end">
		<text><tspan>0.00</tspan></text>
	</g>
</g>
<g style="fill:none; color:gray; stroke:currentColor; stroke-width:1.00; stroke-linecap:butt; stroke-linejoin:miter">
	<path stroke='rgb(175, 175, 175)' stroke-dasharray=' 2,4' class="gridline"  d='M147.7,419.4 L754.0,419.4  h0.01'/></g>
<g style="fill:none; color:black; stroke:currentColor; stroke-width:1.00; stroke-linecap:butt; stroke-linejoin:miter">
	<path stroke='black'  d='M147.7,419.4 L164.2,419.4 M754.0,419.4 L737.5,419.4  h0.01'/>	<g transform="translate(132.4,427.6)" style="stroke:none; fill:black; font-family:Times New Roman; font-size:22.00pt; text-anchor:end">
		<text><tspan>10.00</tspan></text>
	</g>
</g>
<g style="fill:none; color:gray; stroke:currentColor; stroke-width:1.00; stroke-linecap:butt; stroke-linejoin:miter">
	<path stroke='rgb(175, 175, 175)' stroke-dasharray=' 2,4' class="gridline"  d='M147.7,370.8 L754.0,370.8  h0.01'/></g>
<g style="fill:none; color:black; stroke:currentColor; stroke-width:1.00; stroke-linecap:butt; stroke-linejoin:miter">
	<path stroke='black'  d='M147.7,370.8 L164.2,370.8 M754.0,370.8 L737.5,370.8  h0.01'/>	<g transform="translate(132.4,379.0)" style="stroke:none; fill:black; font-family:Times New Roman; font-size:22.00pt; text-anchor:end">
		<text><tspan>20.00</tspan></text>
	</g>
</g>
<g style="fill:none; color:gray; stroke:currentColor; stroke-width:1.00; stroke-linecap:butt; stroke-linejoin:miter">
	<path stroke='rgb(175, 175, 175)' stroke-dasharray=' 2,4' class="gridline"  d='M147.7,322.2 L754.0,322.2  h0.01'/></g>
<g style="fill:none; color:black; stroke:currentColor; stroke-width:1.00; stroke-linecap:butt; stroke-linejoin:miter">
	<path stroke='black'  d='M147.7,322.2 L164.2,322.2 M754.0,322.2 L737.5,322.2  h0.01'/>	<g transform="translate(132.4,330.4)" style="stroke:none; fill:black; font-family:Times New Roman; font-size:22.00pt; text-anchor:end">
		<text><tspan>30.00</tspan></text>
	</g>
</g>
<g style="fill:none; color:gray; stroke:currentColor; stroke-width:1.00; stroke-linecap:butt; stroke-linejoin:miter">
	<path stroke='rgb(175, 175, 175)' stroke-dasharray=' 2,4' class="gridline"  d='M147.7,273.6 L754.0,273.6  h0.01'/></g>
<g style="fill:none; color:black; stroke:currentColor; stroke-width:1.00; stroke-linecap:butt; stroke-linejoin:miter">
	<path stroke='black'  d='M147.7,273.6 L164.2,273.6 M754.0,273.6 L737.5,273.6  h0.01'/>	<g transform="translate(132.4,281.8)" style="stroke:none; fill:black; font-family:Times New Roman; font-size:22.00pt; text-anchor:end">
		<text><tspan>40.00</tspan></text>
	</g>
</g>
<g style="fill:none; color:gray; stroke:currentColor; stroke-width:1.00; stroke-linecap:butt; stroke-linejoin:miter">
	<path stroke='rgb(175, 175, 175)' stroke-dasharray=' 2,4' class="gridline"  d='M147.7,225.1 L754.0,225.1  h0.01'/></g>
<g style="fill:none; color:black; stroke:currentColor; stroke-width:1.00; stroke-linecap:butt; stroke-linejoin:miter">
	<path stroke='black'  d='M147.7,225.1 L164.2,225.1 M754.0,225.1 L737.5,225.1  h0.01'/>	<g transform="translate(132.4,233.3)" style="stroke:none; fill:black; font-family:Times New Roman; font-size:22.00pt; text-anchor:end">
		<text><tspan>50.00</tspan></text>
	</g>
</g>
<g style="fill:none; color:gray; stroke:currentColor; stroke-width:1.00; stroke-linecap:butt; stroke-linejoin:miter">
	<path stroke='rgb(175, 175, 175)' stroke-dasharray=' 2,4' class="gridline"  d='M147.7,176.5 L754.0,176.5  h0.01'/></g>
<g style="fill:none; color:black; stroke:currentColor; stroke-width:1.00; stroke-linecap:butt; stroke-linejoin:miter">
	<path stroke='black'  d='M147.7,176.5 L164.2,176.5 M754.0,176.5 L737.5,176.5  h0.01'/>	<g transform="translate(132.4,184.7)" style="stroke:none; fill:black; font-family:Times New Roman; font-size:22.00pt; text-anchor:end">
		<text><tspan>60.00</tspan></text>
	</g>
</g>
<g style="fill:none; color:gray; stroke:currentColor; stroke-width:1.00; stroke-linecap:butt; stroke-linejoin:miter">
	<path stroke='rgb(175, 175, 175)' stroke-dasharray=' 2,4' class="gridline"  d='M147.7,127.9 L754.0,127.9  h0.01'/></g>
<g style="fill:none; color:black; stroke:currentColor; stroke-width:1.00; stroke-linecap:butt; stroke-linejoin:miter">
	<path stroke='black'  d='M147.7,127.9 L164.2,127.9 M754.0,127.9 L737.5,127.9  h0.01'/>	<g transform="translate(132.4,136.1)" style="stroke:none; fill:black; font-family:Times New Roman; font-size:22.00pt; text-anchor:end">
		<text><tspan>70.00</tspan></text>
	</g>
</g>
<g style="fill:none; color:gray; stroke:currentColor; stroke-width:1.00; stroke-linecap:butt; stroke-linejoin:miter">
	<path stroke='rgb(175, 175, 175)' stroke-dasharray=' 2,4' class="gridline"  d='M147.7,79.3 L754.0,79.3  h0.01'/></g>
<g style="fill:none; color:black; stroke:currentColor; stroke-width:1.00; stroke-linecap:butt; stroke-linejoin:miter">
	<path stroke='black'  d='M147.7,79.3 L164.2,79.3 M754.0,79.3 L737.5,79.3  h0.01'/>	<g transform="translate(132.4,87.5)" style="stroke:none; fill:black; font-family:Times New Roman; font-size:22.00pt; text-anchor:end">
		<text><tspan>80.00</tspan></text>
	</g>
</g>
<g style="fill:none; color:gray; stroke:currentColor; stroke-width:1.00; stroke-linecap:butt; stroke-linejoin:miter">
	<path stroke='rgb(175, 175, 175)' stroke-dasharray=' 2,4' class="gridline"  d='M147.7,30.7 L754.0,30.7  h0.01'/></g>
<g style="fill:none; color:black; stroke:currentColor; stroke-width:1.00; stroke-linecap:butt; stroke-linejoin:miter">
	<path stroke='black'  d='M147.7,30.7 L164.2,30.7 M754.0,30.7 L737.5,30.7  h0.01'/>	<g transform="translate(132.4,38.9)" style="stroke:none; fill:black; font-family:Times New Roman; font-size:22.00pt; text-anchor:end">
		<text><tspan>90.00</tspan></text>
	</g>
</g>
<g style="fill:none; color:gray; stroke:currentColor; stroke-width:1.00; stroke-linecap:butt; stroke-linejoin:miter">
	<path stroke='rgb(175, 175, 175)' stroke-dasharray=' 2,4' class="gridline"  d='M223.5,468.0 L223.5,30.7  h0.01'/></g>
<g style="fill:none; color:black; stroke:currentColor; stroke-width:1.00; stroke-linecap:butt; stroke-linejoin:miter">
	<path stroke='black'  d='M223.5,468.0 L223.5,451.5 M223.5,30.7 L223.5,47.2  h0.01'/>	<g transform="translate(223.5,509.2)" style="stroke:none; fill:black; font-family:Times New Roman; font-size:22.00pt; text-anchor:middle">
		<text><tspan>Network discovery</tspan></text>
	</g>
</g>
<g style="fill:none; color:gray; stroke:currentColor; stroke-width:1.00; stroke-linecap:butt; stroke-linejoin:miter">
	<path stroke='rgb(175, 175, 175)' stroke-dasharray=' 2,4' class="gridline"  d='M375.1,468.0 L375.1,30.7  h0.01'/></g>
<g style="fill:none; color:black; stroke:currentColor; stroke-width:1.00; stroke-linecap:butt; stroke-linejoin:miter">
	<path stroke='black'  d='M375.1,468.0 L375.1,451.5 M375.1,30.7 L375.1,47.2  h0.01'/>	<g transform="translate(375.1,509.2)" style="stroke:none; fill:black; font-family:Times New Roman; font-size:22.00pt; text-anchor:middle">
		<text></text>
	</g>
	<g transform="translate(375.1,542.2)" style="stroke:none; fill:black; font-family:Times New Roman; font-size:22.00pt; text-anchor:middle">
		<text><tspan>Feedback</tspan></text>
	</g>
</g>
<g style="fill:none; color:gray; stroke:currentColor; stroke-width:1.00; stroke-linecap:butt; stroke-linejoin:miter">
	<path stroke='rgb(175, 175, 175)' stroke-dasharray=' 2,4' class="gridline"  d='M526.6,468.0 L526.6,30.7  h0.01'/></g>
<g style="fill:none; color:black; stroke:currentColor; stroke-width:1.00; stroke-linecap:butt; stroke-linejoin:miter">
	<path stroke='black'  d='M526.6,468.0 L526.6,451.5 M526.6,30.7 L526.6,47.2  h0.01'/>	<g transform="translate(526.6,509.2)" style="stroke:none; fill:black; font-family:Times New Roman; font-size:22.00pt; text-anchor:middle">
		<text><tspan>Excessive redundancy</tspan></text>
	</g>
</g>
<g style="fill:none; color:gray; stroke:currentColor; stroke-width:1.00; stroke-linecap:butt; stroke-linejoin:miter">
	<path stroke='rgb(175, 175, 175)' stroke-dasharray=' 2,4' class="gridline"  d='M678.2,468.0 L678.2,47.2 L678.2,30.7  h0.01'/></g>
<g style="fill:none; color:black; stroke:currentColor; stroke-width:1.00; stroke-linecap:butt; stroke-linejoin:miter">
	<path stroke='black'  d='M678.2,468.0 L678.2,451.5 M678.2,30.7 L678.2,47.2  h0.01'/>	<g transform="translate(678.2,509.2)" style="stroke:none; fill:black; font-family:Times New Roman; font-size:22.00pt; text-anchor:middle">
		<text></text>
	</g>
	<g transform="translate(678.2,542.2)" style="stroke:none; fill:black; font-family:Times New Roman; font-size:22.00pt; text-anchor:middle">
		<text><tspan>Main data</tspan></text>
	</g>
	<path stroke='black'  d='M147.7,30.7 L147.7,468.0 L754.0,468.0 L754.0,30.7 L147.7,30.7 Z  h0.01'/>	<g transform="translate(32.3,249.4) rotate(270)" style="stroke:none; fill:black; font-family:Times New Roman; font-size:22.00pt; text-anchor:middle">
		<text><tspan>Sent packets / %</tspan></text>
	</g>
	<g transform="translate(450.8,585.1)" style="stroke:none; fill:black; font-family:Times New Roman; font-size:22.00pt; text-anchor:middle">
		<text><tspan>Art of packets</tspan></text>
	</g>
</g>
	<g id="gnuplot_plot_1" ><title>gnuplot_plot_1</title>
<g style="fill:none; color:red; stroke:currentColor; stroke-width:1.00; stroke-linecap:butt; stroke-linejoin:miter">
	<g style = 'stroke:none; shape-rendering:crispEdges'>
		<polygon fill = 'blue' points = '329.6,468.0 420.6,468.0 420.6,448.8 329.6,448.8 '/>
	</g>
	<path stroke='blue'  d='M329.6,468.0 L329.6,448.9 L420.5,448.9 L420.5,468.0 L329.6,468.0 Z  h0.01'/>	<g style = 'stroke:none; shape-rendering:crispEdges'>
		<polygon fill = 'blue' points = '481.2,468.0 572.2,468.0 572.2,408.8 481.2,408.8 '/>
	</g>
	<path stroke='blue'  d='M481.2,468.0 L481.2,408.9 L572.1,408.9 L572.1,468.0 L481.2,468.0 Z  h0.01'/>	<g style = 'stroke:none; shape-rendering:crispEdges'>
		<polygon fill = 'blue' points = '632.7,468.0 723.8,468.0 723.8,60.2 632.7,60.2 '/>
	</g>
	<path stroke='blue'  d='M632.7,468.0 L632.7,60.3 L723.7,60.3 L723.7,468.0 L632.7,468.0 Z  h0.01'/></g>
	</g>
<g style="fill:none; color:black; stroke:currentColor; stroke-width:1.00; stroke-linecap:butt; stroke-linejoin:miter">
	<path stroke='black'  d='M147.7,30.7 L147.7,468.0 L754.0,468.0 L754.0,30.7 L147.7,30.7 Z  h0.01'/></g>
</g>
</svg>

